\headcommand {\slideentry {0}{0}{1}{1/1}{}{0}}
\headcommand {\beamer@framepages {1}{1}}
\headcommand {\beamer@sectionpages {1}{1}}
\headcommand {\beamer@subsectionpages {1}{1}}
\headcommand {\sectionentry {1}{Introducci\IeC {\'o}n}{2}{Introducci\IeC {\'o}n}{0}}
\headcommand {\beamer@subsectionpages {2}{1}}
\headcommand {\beamer@subsectionentry {0}{1}{1}{2}{Preliminares}}
\headcommand {\slideentry {1}{1}{1}{2/2}{Preliminares}{0}}
\headcommand {\beamer@framepages {2}{2}}
\headcommand {\slideentry {1}{1}{2}{3/3}{Preliminares}{0}}
\headcommand {\beamer@framepages {3}{3}}
\headcommand {\beamer@subsectionpages {2}{3}}
\headcommand {\beamer@subsectionentry {0}{1}{2}{4}{Objetivo}}
\headcommand {\slideentry {1}{2}{1}{4/4}{Objetivo}{0}}
\headcommand {\beamer@framepages {4}{4}}
\headcommand {\beamer@sectionpages {2}{4}}
\headcommand {\beamer@subsectionpages {4}{4}}
\headcommand {\sectionentry {2}{Motivaci\IeC {\'o}n}{5}{Motivaci\IeC {\'o}n}{0}}
\headcommand {\beamer@subsectionpages {5}{4}}
\headcommand {\beamer@subsectionentry {0}{2}{1}{5}{$\mathbb {M}_1$}}
\headcommand {\slideentry {2}{1}{1}{5/5}{$\mathbb {M}_1$}{0}}
\headcommand {\beamer@framepages {5}{5}}
\headcommand {\beamer@subsectionpages {5}{5}}
\headcommand {\beamer@subsectionentry {0}{2}{2}{6}{$\mathbb {M}_2$}}
\headcommand {\slideentry {2}{2}{1}{6/6}{$\mathbb {M}_2$}{0}}
\headcommand {\beamer@framepages {6}{6}}
\headcommand {\slideentry {2}{2}{2}{7/10}{$\mathbb {M}_2$}{0}}
\headcommand {\beamer@framepages {7}{10}}
\headcommand {\slideentry {2}{2}{3}{11/11}{$\mathbb {M}_2$}{0}}
\headcommand {\beamer@framepages {11}{11}}
\headcommand {\beamer@sectionpages {5}{11}}
\headcommand {\beamer@subsectionpages {6}{11}}
\headcommand {\sectionentry {3}{Matrices signo-regulares de orden 3}{12}{Matrices signo-regulares de orden 3}{0}}
\headcommand {\beamer@subsectionpages {12}{11}}
\headcommand {\beamer@subsectionentry {0}{3}{1}{12}{Caracterizaci\IeC {\'o}n de las entradas}}
\headcommand {\slideentry {3}{1}{1}{12/12}{Caracterizaci\IeC {\'o}n de las entradas}{0}}
\headcommand {\beamer@framepages {12}{12}}
\headcommand {\slideentry {3}{1}{2}{13/13}{Caracterizaci\IeC {\'o}n de las entradas}{0}}
\headcommand {\beamer@framepages {13}{13}}
\headcommand {\slideentry {3}{1}{3}{14/17}{Caracterizaci\IeC {\'o}n de las entradas}{0}}
\headcommand {\beamer@framepages {14}{17}}
\headcommand {\slideentry {3}{1}{4}{18/18}{Caracterizaci\IeC {\'o}n de las entradas}{0}}
\headcommand {\beamer@framepages {18}{18}}
\headcommand {\slideentry {3}{1}{5}{19/19}{Caracterizaci\IeC {\'o}n de las entradas}{0}}
\headcommand {\beamer@framepages {19}{19}}
\headcommand {\slideentry {3}{1}{6}{20/23}{Caracterizaci\IeC {\'o}n de las entradas}{0}}
\headcommand {\beamer@framepages {20}{23}}
\headcommand {\beamer@subsectionpages {12}{23}}
\headcommand {\beamer@subsectionentry {0}{3}{2}{24}{Resultados preliminares}}
\headcommand {\slideentry {3}{2}{1}{24/24}{Resultados preliminares}{0}}
\headcommand {\beamer@framepages {24}{24}}
\headcommand {\slideentry {3}{2}{2}{25/25}{Resultados preliminares}{0}}
\headcommand {\beamer@framepages {25}{25}}
\headcommand {\slideentry {3}{2}{3}{26/26}{Resultados preliminares}{0}}
\headcommand {\beamer@framepages {26}{26}}
\headcommand {\beamer@sectionpages {12}{26}}
\headcommand {\beamer@subsectionpages {24}{26}}
\headcommand {\sectionentry {4}{Resultado}{27}{Resultado}{0}}
\headcommand {\beamer@subsectionpages {27}{26}}
\headcommand {\beamer@subsectionentry {0}{4}{1}{27}{Caracterizaci\IeC {\'o}n de entradas diagonales de $\Phi $}}
\headcommand {\slideentry {4}{1}{1}{27/27}{Caracterizaci\IeC {\'o}n de entradas diagonales de $\Phi $}{0}}
\headcommand {\beamer@framepages {27}{27}}
\headcommand {\beamer@subsectionpages {27}{27}}
\headcommand {\beamer@subsectionentry {0}{4}{2}{28}{Esquema de la demostraci\IeC {\'o}n}}
\headcommand {\slideentry {4}{2}{1}{28/28}{Esquema de la demostraci\IeC {\'o}n}{0}}
\headcommand {\beamer@framepages {28}{28}}
\headcommand {\slideentry {4}{2}{2}{29/29}{Esquema de la demostraci\IeC {\'o}n}{0}}
\headcommand {\beamer@framepages {29}{29}}
\headcommand {\slideentry {4}{2}{3}{30/30}{Esquema de la demostraci\IeC {\'o}n}{0}}
\headcommand {\beamer@framepages {30}{30}}
\headcommand {\slideentry {4}{2}{4}{31/31}{Esquema de la demostraci\IeC {\'o}n}{0}}
\headcommand {\beamer@framepages {31}{31}}
\headcommand {\slideentry {4}{2}{5}{32/32}{Esquema de la demostraci\IeC {\'o}n}{0}}
\headcommand {\beamer@framepages {32}{32}}
\headcommand {\beamer@partpages {1}{32}}
\headcommand {\beamer@subsectionpages {28}{32}}
\headcommand {\beamer@sectionpages {27}{32}}
\headcommand {\beamer@documentpages {32}}
\headcommand {\gdef \inserttotalframenumber {23}}
